<svg xmlns="http://www.w3.org/2000/svg" xmlns:xlink="http://www.w3.org/1999/xlink" preserveAspectRatio="xMidYMid" width="12" height="18" viewBox="0 0 12 18">
  <defs>
    <style>
      .cls-1 {
        fill: #f50202;
        fill-rule: evenodd;
      }
    </style>
  </defs>
  <path d="M0.072,4.183 L0.072,1.681 L3.610,1.681 L3.610,0.095 L8.414,0.095 L8.414,1.681 L11.952,1.681 L11.952,4.183 L0.072,4.183 ZM7.141,1.347 L4.883,1.347 L4.883,1.681 L7.141,1.681 L7.141,1.347 ZM10.255,17.531 L1.769,17.531 L0.962,5.435 L11.061,5.435 L10.255,17.531 Z" class="cls-1"/>
</svg>
